…
check outliers

``` r
Params_wpath %>%
  dplyr::arrange(-sum_path_lenght)
#> # A tibble: 47 × 14
#>    trip_month_id    central_location path_lenght_km leaving_distance_km
#>    <chr>            <chr>                     <dbl>               <dbl>
#>  1 Ago_a_trip_00512 colony                    218.                 3.14
#>  2 Ago_a_trip_00506 colony                     79.4                0.53
#>  3 Ago_a_trip_00445 colony                     67.9                1.46
#>  4 Ago_a_trip_00406 colony                     52.4                3.39
#>  5 Ago_a_trip_00518 colony                     52.2                1.01
#>  6 Ago_a_trip_00474 colony                     43.3                1.22
#>  7 Ago_a_trip_00455 colony                     42.6                0.52
#>  8 Ago_a_trip_00528 colony                     26.9                1.44
#>  9 Ago_a_trip_00520 colony                     20.8                7.75
#> 10 Ago_a_trip_00521 colony                     14.5               10.3 
#> # ℹ 37 more rows
#> # ℹ 10 more variables: returning_distance_km <dbl>, sum_path_lenght <dbl>,
#> #   central_lat <dbl>, central_lon <dbl>, trip_number <chr>, trip_start <dttm>,
#> #   trip_end <dttm>, duration <dbl>, min_gap <dbl>, max_gap <dbl>
```
…
