…
New_central location

``` r
new_central_location<-data.frame(Longitude=-110.3269,Latitude=24.152)
```

``` r
subset_reevaluation(my_trip=GSM_trips,my_tripid='trip_00528',
                    new_central_location=data.frame(Longitude=-110.32,Latitude=24.15),
                    old_central_location=data.frame(Longitude=-110.34,Latitude=24.28))
```

<img src="man/figures/README-unnamed-chunk-96-1.png" width="100%" />

    #> # A tibble: 25 × 12
    #>    ID    trip_number daytime             gaps_min num_seq season month Longitude
    #>    <chr> <chr>       <dttm>                 <dbl>   <dbl> <chr>  <chr>     <dbl>
    #>  1 LALI… trip_00528  2023-08-28 04:09:06     29.8   18419 late-… 08        -110.
    #>  2 LALI… trip_00528  2023-08-28 05:09:29     60.4   18420 late-… 08        -110.
    #>  3 LALI… trip_00528  2023-08-28 05:38:51     29.4   18421 late-… 08        -110.
    #>  4 LALI… trip_00528  2023-08-28 06:08:53     30.0   18422 late-… 08        -110.
    #>  5 LALI… trip_00528  2023-08-28 06:38:51     30.0   18423 late-… 08        -110.
    #>  6 LALI… trip_00528  2023-08-28 07:08:51     30     18424 late-… 08        -110.
    #>  7 LALI… trip_00528  2023-08-28 07:38:51     30     18425 late-… 08        -110.
    #>  8 LALI… trip_00528  2023-08-28 08:08:59     30.1   18426 late-… 08        -110.
    #>  9 LALI… trip_00528  2023-08-28 08:39:29     30.5   18427 late-… 08        -110.
    #> 10 LALI… trip_00528  2023-08-28 09:09:14     29.8   18428 late-… 08        -110.
    #> # ℹ 15 more rows
    #> # ℹ 4 more variables: Latitude <dbl>, inside <chr>, central_base <chr>,
    #> #   battery_charge <dbl>
…
# ——————–

# 5. Merge

## Step 1: Merge params

Add criteria classifications

``` r
Params_02criteria
#> # A tibble: 26 × 12
#>    trip_id    trip_month_id  central_loc trip_start          trip_end           
#>    <chr>      <chr>          <chr>       <dttm>              <dttm>             
#>  1 trip_00406 Ago_a_trip_00… colony      2023-07-31 22:08:50 2023-08-01 17:19:13
#>  2 trip_00416 Ago_a_trip_00… colony      2023-08-02 02:58:49 2023-08-02 03:29:04
#>  3 trip_00424 Ago_a_trip_00… colony      2023-08-02 10:58:47 2023-08-02 11:38:49
#>  4 trip_00436 Ago_a_trip_00… colony      2023-08-03 00:08:49 2023-08-03 00:38:52
#>  5 trip_00442 Ago_a_trip_00… colony      2023-08-03 05:08:50 2023-08-03 05:38:51
#>  6 trip_00443 Ago_a_trip_00… colony      2023-08-03 06:48:50 2023-08-03 07:28:56
#>  7 trip_00445 Ago_a_trip_00… colony      2023-08-03 10:58:50 2023-08-04 16:58:55
#>  8 trip_00451 Ago_a_trip_00… colony      2023-08-04 23:58:49 2023-08-05 00:38:53
#>  9 trip_00453 Ago_a_trip_00… colony      2023-08-05 01:38:53 2023-08-05 02:09:07
#> 10 trip_00455 Ago_a_trip_00… colony      2023-08-05 08:48:50 2023-08-05 15:59:04
#> # ℹ 16 more rows
#> # ℹ 7 more variables: min_gap <dbl>, max_gap <dbl>, duration <dbl>,
#> #   trip_size <chr>, resolution <chr>, params_analyses <chr>,
#> #   interpolation <chr>
…
``` r
Params_merged<-rbind(Params_02criteria %>% dplyr::filter(!trip_id %in% Reevaluate_tripid),
                     Params_03reevaluate)
```

## Step 2: Locs merged

``` r
GSM_trips
#> # A tibble: 1,704 × 12
#>    ID    trip_number num_seq daytime             season month Longitude Latitude
#>    <chr> <chr>         <dbl> <dttm>              <chr>  <chr>     <dbl>    <dbl>
#>  1 LALI… trip_00406    15654 2023-07-31 22:08:50 late-… 08        -110.     24.3
#>  2 LALI… trip_00406    15655 2023-07-31 22:18:54 late-… 08        -110.     24.3
#>  3 LALI… trip_00406    15656 2023-07-31 22:28:51 late-… 08        -110.     24.3
#>  4 LALI… trip_00406    15657 2023-07-31 22:38:59 late-… 08        -110.     24.3
#>  5 LALI… trip_00406    15658 2023-07-31 22:48:51 late-… 08        -110.     24.3
#>  6 LALI… trip_00406    15659 2023-07-31 22:58:52 late-… 08        -110.     24.3
#>  7 LALI… trip_00406    15660 2023-07-31 23:08:51 late-… 08        -110.     24.3
#>  8 LALI… trip_00406    15661 2023-07-31 23:18:51 late-… 08        -110.     24.3
#>  9 LALI… trip_00406    15662 2023-07-31 23:28:52 late-… 08        -110.     24.3
#> 10 LALI… trip_00406    15663 2023-07-31 23:38:51 late-… 08        -110.     24.3
#> # ℹ 1,694 more rows
#> # ℹ 4 more variables: inside <chr>, central_base <chr>, battery_charge <dbl>,
#> #   gaps_min <dbl>
Reevaluate_04trips
#> # A tibble: 738 × 13
#>    ID    trip_number daytime             gaps_min num_seq season month Longitude
#>    <chr> <chr>       <dttm>                 <dbl>   <dbl> <chr>  <chr>     <dbl>
#>  1 LALI… trip_00512  2023-08-12 03:28:53     15     17141 late-… 08        -110.
#>  2 LALI… trip_00512  2023-08-12 03:43:52     15.0   17142 late-… 08        -110.
#>  3 LALI… trip_00512  2023-08-12 03:58:51     15.0   17143 late-… 08        -110.
#>  4 LALI… trip_00512  2023-08-12 04:13:56     15.1   17144 late-… 08        -110.
#>  5 LALI… trip_00512  2023-08-12 04:28:52     14.9   17145 late-… 08        -110.
#>  6 LALI… trip_00512  2023-08-12 04:43:53     15.0   17146 late-… 08        -110.
#>  7 LALI… trip_00512  2023-08-12 04:58:53     15     17147 late-… 08        -110.
#>  8 LALI… trip_00512  2023-08-12 05:13:53     15     17148 late-… 08        -110.
#>  9 LALI… trip_00512  2023-08-12 05:28:52     15.0   17149 late-… 08        -110.
#> 10 LALI… trip_00512  2023-08-12 05:43:51     15.0   17150 late-… 08        -110.
#> # ℹ 728 more rows
#> # ℹ 5 more variables: Latitude <dbl>, inside <chr>, central_base <chr>,
#> #   battery_charge <dbl>, central_location <int>
```
…
``` r
new_central_location<-data.frame(Longitude=-110.325,Latitude=24.17)
plot_check(my_locs=Inter_05reevaluate,my_central_location = new_central_location)+
  ggplot2::geom_point(data=new_central_location, ggplot2::aes(x=Longitude, y=Latitude),color='red',shape=17, size=5)
```

<img src="man/figures/README-unnamed-chunk-133-1.png" width="100%" />

## Step 6: reevaluate_params

``` r
Inter_05reevaluate
#> # A tibble: 738 × 16
#>    ID    trip_number num_seq daytime             season month Longitude Latitude
#>    <chr> <chr>         <dbl> <dttm>              <chr>  <chr>     <dbl>    <dbl>
#>  1 LALI… trip_00512    17141 2023-08-12 03:28:53 late-… 08        -110.     24.3
#>  2 LALI… trip_00512    17142 2023-08-12 03:43:52 late-… 08        -110.     24.2
#>  3 LALI… trip_00512    17143 2023-08-12 03:58:51 late-… 08        -110.     24.2
#>  4 LALI… trip_00512    17144 2023-08-12 04:13:56 late-… 08        -110.     24.2
#>  5 LALI… trip_00512    17145 2023-08-12 04:28:52 late-… 08        -110.     24.2
#>  6 LALI… trip_00512    17146 2023-08-12 04:43:53 late-… 08        -110.     24.2
#>  7 LALI… trip_00512    17147 2023-08-12 04:58:53 late-… 08        -110.     24.2
#>  8 LALI… trip_00512    17148 2023-08-12 05:13:53 late-… 08        -110.     24.2
#>  9 LALI… trip_00512    17149 2023-08-12 05:28:52 late-… 08        -110.     24.2
#> 10 LALI… trip_00512    17150 2023-08-12 05:43:51 late-… 08        -110.     24.2
#> # ℹ 728 more rows
#> # ℹ 8 more variables: inside <chr>, central_base <chr>, battery_charge <dbl>,
#> #   gaps_min <dbl>, trip_size <chr>, params_analyses <chr>, resolution <chr>,
#> #   interpolation <chr>
```
…
