…
<img src="man/figures/README-unnamed-chunk-82-1.png" width="100%" />

## Step 12: Params merged

Add criteria classifications

``` r
Params_03reevaluate<-params_class(my_params=Reevaluate_06params)
```

``` r
Params_02criteria
#> # A tibble: 26 × 12
#>    trip_id    trip_month_id  central_loc trip_start          trip_end           
#>    <chr>      <chr>          <chr>       <dttm>              <dttm>             
#>  1 trip_00539 Ago_a_trip_00… colony      2023-07-31 22:08:50 2023-08-01 17:19:13
#>  2 trip_00549 Ago_a_trip_00… colony      2023-08-02 02:58:49 2023-08-02 03:29:04
#>  3 trip_00557 Ago_a_trip_00… colony      2023-08-02 10:58:47 2023-08-02 11:38:49
#>  4 trip_00569 Ago_a_trip_00… colony      2023-08-03 00:08:49 2023-08-03 00:38:52
#>  5 trip_00575 Ago_a_trip_00… colony      2023-08-03 05:08:50 2023-08-03 05:38:51
#>  6 trip_00576 Ago_a_trip_00… colony      2023-08-03 06:48:50 2023-08-03 07:28:56
#>  7 trip_00578 Ago_a_trip_00… colony      2023-08-03 10:58:50 2023-08-04 16:58:55
#>  8 trip_00584 Ago_a_trip_00… colony      2023-08-04 23:58:49 2023-08-05 00:38:53
#>  9 trip_00586 Ago_a_trip_00… colony      2023-08-05 01:38:53 2023-08-05 02:09:07
#> 10 trip_00588 Ago_a_trip_00… colony      2023-08-05 08:48:50 2023-08-05 15:59:04
#> # ℹ 16 more rows
#> # ℹ 7 more variables: duration <dbl>, min_gap <dbl>, max_gap <dbl>,
#> #   trip_size <chr>, resolution <chr>, params_analyses <chr>,
#> #   interpolation <chr>
…
